200060000007004086000001300000000040090000000480000710900078000000050002020600501
009000700000800006230910000002008007300000020900040000190600270000280040000005108
406010000020000100500207000600001800000030509080000300030060210000000050000350408
000189003400030200000042000002000000000000598000000170700000040010790030040003005
000000000050930000000042000206000010004860090190000030508100076000000053001004000
000604030005003090002000000000000000090720000300008906080501000004007520010000700
039010000000073080708000105005000008001900000360000000024000009000080320000001800
840000001070000400000000050000000504003604010000000609400902000900851000205007008
004100060061000057002000004009000000020309000050000089005010300800007000003056000
080701000001000090730500041070000006205003000800000730000000500000150600000620004
008070000000100300000060207502000000300080070000020630000051040100000008600040700
085040900000000000029350000300000060000401000007090010060000000090030570000120800
080060024005102000000050800000090000000000150340000600070200090000008301050009070
000000070710000200800602950050040080930000020000080603000000002000864000001003006
000000000000904000094006020070050060009080000002003504000070040000000036780000000
000001600400080003050060001020000800000020010900700065080205079000007080090040006
020070108000800000005004000000000300100037902047000000506001000089025004000008000
000050000650090000400700060009030006000201070003000024000002010006000080040609000
200080070008002000000050010040000708000000500003400090060000007901300000000071630
900700500000600040800000039000173000003060070006000200009000000000400605001052400
006001007102005060000730000003800009000024103000000075080000200007040000500010000
000002000800000500032070000000930004060000080000760100400090000201300007009510802
603020050080000004001095060004000003090018000000600900200700000000000040005000801
900034700000000030000080020680150000090603000007000900201000800000000467000700002
900105000050000060100380020041036080002000000000020057000050000090000500600200310
000090200000400030000007050290060000000001000100003004004020080907000046006300000
000000100000009070615007000000006000000300009570020010000030086790040023800000000
000000800740200009000040016000570000260000304008000000003001000105380060680000000
003008095500001004000004320060000800005000060800002007000300000700050603080000200
000072090060900200005000001270801000000750006006000400800090570000300000000005040
000060001009003070008070090000100200600000004020006710200080000403000128000940000
003205006005000000700001900480000010006500209501020000000000040000068003000042100
000080009502900000000014000000406008047000000060000300006003000000200050104809060
500008090020041000001030000040300800005400063007005000900200745000100006070000900
050010007401000900000060205000000800015000000027500091090002000700940000000050680
000009040050040290700000000100700000009080007000004361000500120000090000003006004
400010000000540000863700000001004000002006470000030002000001064500000019020000750
000000900000012000009007062600000800000009050250300000007800009000000508160000307
020000071050009200063000009008050000010006002000007000040305000500600007001200800
000000001030960000000005902006300000000000078014007060400000080200680009070010000
100005020462000701000700090000070005090814000000900000020000003640008007500000000
000008097409700000050000002008016070000090003002800600060501000000040020000023010
000000006301000792400000000005040000000053009020907000000002005600070280080000063
053000084000500090000100000800900050000012700000004609004230005500008007009000000
701000056060000003040070000025010000300706000000900400000850300010000075000000900
007003006009000405300080000080020090000401000003600000000007002700002600010000350
009000207080001000001006900060500040002004600100020000040090103000003400800000000
907020060000000000008090070050000043080000009000649000500001000003006008000005201
000520000090000000500090800006000040700000000000308261060000008804007090300050700
000060000130040008000002900700100600000207080080000005000503002910000700003006040
830006000506002009020700000105009000000000500007000006000064078000000030080510040
000000000000000000000000000000000000000000000000000000000000000000000000000000000
